…
\`6. (2 points)

``` r
# Retrieve and display ONLY the pet name (animal_name) and primary_breed of the species Goat sorted by pet names
goats <- seattlepets %>%
  filter(species == "Goat") %>%
  select(animal_name, primary_breed) %>%
  arrange(animal_name)

# Display the result
print(goats)
```

    ## # A tibble: 38 × 2
    ##    animal_name     primary_breed
    ##    <chr>           <chr>        
    ##  1 Abelard         Miniature    
    ##  2 Aggie           Miniature    
    ##  3 Arya            Miniature    
    ##  4 Beans           Miniature    
    ##  5 Brussels Sprout Miniature    
    ##  6 Darcy           Miniature    
    ##  7 Fawn            Miniature    
    ##  8 Fiona           Miniature    
    ##  9 Gavin           Standard     
    ## 10 Grace           Miniature    
    ## # ℹ 28 more rows
\`7. (2 points)

``` r
# Concatenate the two columns animal_name and species into a single column named pet
# then display license_number and pet sorted by pet
pets <- seattlepets %>%
  mutate(pet = paste(animal_name, species, sep = "; ")) %>%
  select(license_number, pet) %>%
  arrange(pet)

# Display the result
print(pets)
```

    ## # A tibble: 52,519 × 2
    ##    license_number pet                                    
    ##    <chr>          <chr>                                  
    ##  1 8001665        "\"Luci\" Lucia Rosalin Wicksugal; Dog"
    ##  2 896557         "\"Mama\" Maya; Cat"                   
    ##  3 S147119        "\"Mo\"; Cat"                          
    ##  4 353597         "'Alani; Cat"                          
    ##  5 S143106        "'Murca; Dog"                          
    ##  6 573722         "-; Cat"                               
    ##  7 S126229        "1; Cat"                               
    ##  8 S126230        "2; Cat"                               
    ##  9 133239         "30 Weight; Cat"                       
    ## 10 S142492        "7's; Dog"                             
    ## # ℹ 52,509 more rows
…
\`9. (2 points)

``` r
top_10_names <- seattlepets %>% 
filter(animal_name %in% c( "Lucy"  , "Charlie" , "Luna" , "Bella" , "Max"    , 
                           "Daisy" , "Molly"   , "Jack" , "Lily"  , "Stella" ))
top_10_names
```

    ## # A tibble: 2,974 × 7
    ##    license_issue_date license_number animal_name species primary_breed          
    ##    <date>             <chr>          <chr>       <chr>   <chr>                  
    ##  1 2018-11-25         S120480        Charlie     Dog     Retriever, Labrador    
    ##  2 2018-11-03         829563         Max         Dog     Retriever, Labrador    
    ##  3 2018-10-29         732106         Lily        Cat     Domestic Shorthair     
    ##  4 2018-11-25         895808         Max         Cat     Domestic Shorthair     
    ##  5 2018-11-26         834841         Daisy       Dog     Terrier, American Pit …
    ##  6 2018-12-13         8003804        Charlie     Dog     Border Collie          
    ##  7 2018-11-06         S125292        Jack        Cat     Domestic Shorthair     
    ##  8 2018-11-01         835179         Stella      Dog     Retriever, Labrador    
    ##  9 2018-12-14         950094         Molly       Dog     Retriever, Labrador    
    ## 10 2018-11-24         S137301        Lucy        Dog     Hound                  
    ## # ℹ 2,964 more rows
    ## # ℹ 2 more variables: secondary_breed <chr>, zip_code <chr>
…
